{
  "project_info": {
    "project_number": "302143144295",
    "firebase_url": "https://mad-informatika.firebaseio.com",
    "project_id": "mad-informatika",
    "storage_bucket": "mad-informatika.appspot.com"
  },
  "client": [
    {
      "client_info": {
        "mobilesdk_app_id": "1:302143144295:android:5ad5d66e7ba1401a",
        "android_client_info": {
          "package_name": "com.example.haidar.androidfcm"
        }
      },
      "oauth_client": [
        {
          "client_id": "302143144295-ejpb08n825aavrf7pis5rg5nphsjn87n.apps.googleusercontent.com",
          "client_type": 1,
          "android_info": {
            "package_name": "com.example.haidar.androidfcm",
            "certificate_hash": "e13f68a135362924af26368da8dde4dbccc6464a"
          }
        },
        {
          "client_id": "302143144295-rvtlpdtp2061ralftjas74qt7ltdtd0b.apps.googleusercontent.com",
          "client_type": 3
        }
      ],
      "api_key": [
        {
          "current_key": "AIzaSyDCcEcK63loy884XzAo2K9CMfgY01H6TiI"
        }
      ],
      "services": {
        "analytics_service": {
          "status": 1
        },
        "appinvite_service": {
          "status": 2,
          "other_platform_oauth_client": [
            {
              "client_id": "302143144295-rvtlpdtp2061ralftjas74qt7ltdtd0b.apps.googleusercontent.com",
              "client_type": 3
            }
          ]
        },
        "ads_service": {
          "status": 2
        }
      }
    }
  ],
  "configuration_version": "1"
}